{
  "project_info": {
    "project_number": "655521424141",
    "firebase_url": "https://android-gps-app.firebaseio.com",
    "project_id": "android-gps-app",
    "storage_bucket": "android-gps-app.appspot.com"
  },
  "client": [
    {
      "client_info": {
        "mobilesdk_app_id": "1:655521424141:android:8fecb7491a1eba13",
        "android_client_info": {
          "package_name": "com.example.androidapp"
        }
      },
      "oauth_client": [
        {
          "client_id": "655521424141-effvi4e8egfht9vqee99aj6ts7a38qd6.apps.googleusercontent.com",
          "client_type": 1,
          "android_info": {
            "package_name": "com.example.androidapp",
            "certificate_hash": "4b9963522e7fb764c0576d5a2bc0fd8b90332e08"
          }
        },
        {
          "client_id": "655521424141-csp661oa8i03mt37jlge1n63o6sr6qc9.apps.googleusercontent.com",
          "client_type": 1,
          "android_info": {
            "package_name": "com.example.androidapp",
            "certificate_hash": "13f696d4eb5488edb6c6d8ef917e5b2eb58df93f"
          }
        },
        {
          "client_id": "655521424141-emtqar3ni25qa5jb04ek1bubq76trt4u.apps.googleusercontent.com",
          "client_type": 3
        }
      ],
      "api_key": [
        {
          "current_key": "AIzaSyDTfhtfEA__k0H1OmK_4HBsbvn90KIBazc"
        }
      ],
      "services": {
        "appinvite_service": {
          "other_platform_oauth_client": [
            {
              "client_id": "655521424141-emtqar3ni25qa5jb04ek1bubq76trt4u.apps.googleusercontent.com",
              "client_type": 3
            }
          ]
        }
      }
    }
  ],
  "configuration_version": "1"
}